[ Error ] Receive unkown message : FriendsGetListMessage | Length : 0
[ Error ] Receive unkown message : ClientKeyMessage | Length : 23
[ Error ] Receive unkown message : FriendsGetListMessage | Length : 0
[ Error ] Receive unkown message : ClientKeyMessage | Length : 23
[ Error ] Receive unkown message : FriendsGetListMessage | Length : 0
[ Error ] Receive unkown message : ClientKeyMessage | Length : 23
[ Error ] Receive unkown message : FriendsGetListMessage | Length : 0
[ Error ] Receive unkown message : ClientKeyMessage | Length : 23
[ Error ] Receive unkown message : FriendsGetListMessage | Length : 0
[ Error ] Receive unkown message : ClientKeyMessage | Length : 23
