[ Info ] Starting IPC Auth 127.0.0.1:443
[ Info ] Starting IPC World 127.0.0.1:5556
[ Info ] account yolo was create...
[ Info ] Client <127.0.0.1:50630> connected to AuthServer...
[ AuthServer ] <127.0.0.1:443> Send ProtocolRequired
[ AuthServer ] <127.0.0.1:443> Send HelloConnectMessage
[ AuthServer ] <127.0.0.1:50630> Receive IdentificationMessage
[ AuthServer ] <127.0.0.1:443> Send IdentificationSuccessMessage
[ AuthServer ] <127.0.0.1:443> Send ServersListMessage
[ AuthServer ] <127.0.0.1:50630> Receive ServerSelectionMessage
[ AuthServer ] <127.0.0.1:443> Send SelectedServerDataMessage
[ Info ] Client <127.0.0.1:50630> disconnected from AuthServer...
[ Info ] Client <127.0.0.1:50631> connected to WorldServer...
[ WorldServer ] <127.0.0.1:5556> Send ProtocolRequired
[ WorldServer ] <127.0.0.1:5556> Send HelloGameMessage
[ WorldServer ] <127.0.0.1:50631> Receive AuthenticationTicketMessage
[ WorldServer ] <127.0.0.1:5556> Send AuthenticationTicketAcceptedMessage
[ WorldServer ] <127.0.0.1:5556> Send BasicTimeMessage
[ WorldServer ] <127.0.0.1:5556> Send AccountCapabilitiesMessage
[ WorldServer ] <127.0.0.1:5556> Send TrustStatusMessage
[ WorldServer ] <127.0.0.1:50631> Receive CharactersListRequestMessage
[ WorldServer ] <127.0.0.1:5556> Send CharactersListMessage
[ WorldServer ] <127.0.0.1:50631> Receive CharacterCreationRequestMessage
[ WorldServer ] <127.0.0.1:5556> Send CharacterCreationResultMessage
[ WorldServer ] <127.0.0.1:50631> Receive CharacterCreationRequestMessage
[ Info ] Character Salutfr was create...
[ WorldServer ] <127.0.0.1:5556> Send CharacterCreationResultMessage
[ WorldServer ] <127.0.0.1:5556> Send CharactersListMessage
[ WorldServer ] <127.0.0.1:50631> Receive CharacterSelectionMessage
[ WorldServer ] <127.0.0.1:5556> Send CharacterSelectedSuccessMessage
[ WorldServer ] <127.0.0.1:5556> Send InventoryContentMessage
[ WorldServer ] <127.0.0.1:5556> Send ShortcutBarContentMessage
[ WorldServer ] <127.0.0.1:5556> Send ShortcutBarContentMessage
[ WorldServer ] <127.0.0.1:5556> Send EmoteListMessage
[ WorldServer ] <127.0.0.1:5556> Send EnabledChannelsMessage
[ WorldServer ] <127.0.0.1:5556> Send AlignmentRankUpdateMessage
[ WorldServer ] <127.0.0.1:5556> Send AlignmentSubAreasListMessage
[ WorldServer ] <127.0.0.1:5556> Send SpellListMessage
[ WorldServer ] <127.0.0.1:5556> Send InventoryWeightMessage
[ WorldServer ] <127.0.0.1:5556> Send CharacterStatsListMessage
[ WorldServer ] <127.0.0.1:5556> Send JobDescriptionMessage
[ WorldServer ] <127.0.0.1:5556> Send JobExperienceMultiUpdateMessage
[ WorldServer ] <127.0.0.1:5556> Send JobCrafterDirectorySettingsMessage
[ WorldServer ] <127.0.0.1:50631> Receive IgnoredGetListMessage
[ WorldServer ] <127.0.0.1:5556> Send IgnoredListMessage
[ WorldServer ] <127.0.0.1:50631> Receive GameContextCreateRequestMessage
[ WorldServer ] <127.0.0.1:5556> Send GameContextDestroyMessage
[ WorldServer ] <127.0.0.1:5556> Send GameContextCreateMessage
[ WorldServer ] <127.0.0.1:5556> Send CurrentMapMessage
[ WorldServer ] <127.0.0.1:50631> Receive ChannelEnablingMessage
[ WorldServer ] <127.0.0.1:50631> Receive ChannelEnablingMessage
[ WorldServer ] <127.0.0.1:50631> Receive ChannelEnablingMessage
[ WorldServer ] <127.0.0.1:50631> Receive QuestListRequestMessage
[ WorldServer ] <127.0.0.1:5556> Send QuestListMessage
[ WorldServer ] <127.0.0.1:50631> Receive MapInformationsRequestMessage
[ WorldServer ] <127.0.0.1:5556> Send MapComplementaryInformationsDataMessage
[ WorldServer ] <127.0.0.1:5556> Send GameRolePlayShowActorMessage
[ Info ] Client <127.0.0.1:50631> disconnected from WorldServer...
[ Info ] Starting IPC Auth 127.0.0.1:443
[ Info ] Starting IPC World 127.0.0.1:5556
[ Info ] Client <127.0.0.1:50935> connected to AuthServer...
[ AuthServer ] <127.0.0.1:443> Send ProtocolRequired
[ AuthServer ] <127.0.0.1:443> Send HelloConnectMessage
[ AuthServer ] <127.0.0.1:50935> Receive IdentificationMessage
[ AuthServer ] <127.0.0.1:443> Send IdentificationFailedMessage
[ Info ] Client <127.0.0.1:50935> disconnected from AuthServer...
[ Info ] Client <127.0.0.1:50936> connected to AuthServer...
[ AuthServer ] <127.0.0.1:443> Send ProtocolRequired
[ AuthServer ] <127.0.0.1:443> Send HelloConnectMessage
[ AuthServer ] <127.0.0.1:50936> Receive IdentificationMessage
[ AuthServer ] <127.0.0.1:443> Send IdentificationSuccessMessage
[ AuthServer ] <127.0.0.1:443> Send ServersListMessage
[ AuthServer ] <127.0.0.1:50936> Receive ServerSelectionMessage
[ AuthServer ] <127.0.0.1:443> Send SelectedServerDataMessage
[ Info ] Client <127.0.0.1:50936> disconnected from AuthServer...
[ Info ] Client <127.0.0.1:50937> connected to WorldServer...
[ WorldServer ] <127.0.0.1:5556> Send ProtocolRequired
[ WorldServer ] <127.0.0.1:5556> Send HelloGameMessage
[ WorldServer ] <127.0.0.1:50937> Receive AuthenticationTicketMessage
[ WorldServer ] <127.0.0.1:5556> Send AuthenticationTicketAcceptedMessage
[ WorldServer ] <127.0.0.1:5556> Send BasicTimeMessage
[ WorldServer ] <127.0.0.1:5556> Send AccountCapabilitiesMessage
[ WorldServer ] <127.0.0.1:5556> Send TrustStatusMessage
[ WorldServer ] <127.0.0.1:50937> Receive CharactersListRequestMessage
[ WorldServer ] <127.0.0.1:5556> Send CharactersListMessage
[ WorldServer ] <127.0.0.1:50937> Receive CharacterDeletionRequestMessage
[ Info ] Client <127.0.0.1:50937> disconnected from WorldServer...
[ Info ] Client <127.0.0.1:50955> connected to AuthServer...
[ AuthServer ] <127.0.0.1:443> Send ProtocolRequired
[ AuthServer ] <127.0.0.1:443> Send HelloConnectMessage
[ AuthServer ] <127.0.0.1:50955> Receive IdentificationMessage
[ AuthServer ] <127.0.0.1:443> Send IdentificationSuccessMessage
[ AuthServer ] <127.0.0.1:443> Send ServersListMessage
[ AuthServer ] <127.0.0.1:50955> Receive ServerSelectionMessage
[ AuthServer ] <127.0.0.1:443> Send SelectedServerDataMessage
[ Info ] Client <127.0.0.1:50955> disconnected from AuthServer...
[ Info ] Client <127.0.0.1:50957> connected to WorldServer...
[ WorldServer ] <127.0.0.1:5556> Send ProtocolRequired
[ WorldServer ] <127.0.0.1:5556> Send HelloGameMessage
[ WorldServer ] <127.0.0.1:50957> Receive AuthenticationTicketMessage
[ WorldServer ] <127.0.0.1:5556> Send AuthenticationTicketAcceptedMessage
[ WorldServer ] <127.0.0.1:5556> Send BasicTimeMessage
[ WorldServer ] <127.0.0.1:5556> Send AccountCapabilitiesMessage
[ WorldServer ] <127.0.0.1:5556> Send TrustStatusMessage
[ WorldServer ] <127.0.0.1:50957> Receive CharactersListRequestMessage
[ WorldServer ] <127.0.0.1:5556> Send CharactersListMessage
[ WorldServer ] <127.0.0.1:50957> Receive CharacterDeletionRequestMessage
[ Info ] Starting IPC Auth 127.0.0.1:443
[ Info ] Starting IPC World 127.0.0.1:5556
[ Info ] Client <127.0.0.1:50985> connected to AuthServer...
[ AuthServer ] <127.0.0.1:443> Send ProtocolRequired
[ AuthServer ] <127.0.0.1:443> Send HelloConnectMessage
[ AuthServer ] <127.0.0.1:50985> Receive IdentificationMessage
[ AuthServer ] <127.0.0.1:443> Send IdentificationSuccessMessage
[ AuthServer ] <127.0.0.1:443> Send ServersListMessage
[ AuthServer ] <127.0.0.1:50985> Receive ServerSelectionMessage
[ AuthServer ] <127.0.0.1:443> Send SelectedServerDataMessage
[ Info ] Client <127.0.0.1:50985> disconnected from AuthServer...
[ Info ] Client <127.0.0.1:50986> connected to WorldServer...
[ WorldServer ] <127.0.0.1:5556> Send ProtocolRequired
[ WorldServer ] <127.0.0.1:5556> Send HelloGameMessage
[ WorldServer ] <127.0.0.1:50986> Receive AuthenticationTicketMessage
[ WorldServer ] <127.0.0.1:5556> Send AuthenticationTicketAcceptedMessage
[ WorldServer ] <127.0.0.1:5556> Send BasicTimeMessage
[ WorldServer ] <127.0.0.1:5556> Send AccountCapabilitiesMessage
[ WorldServer ] <127.0.0.1:5556> Send TrustStatusMessage
[ WorldServer ] <127.0.0.1:50986> Receive CharactersListRequestMessage
[ WorldServer ] <127.0.0.1:5556> Send CharactersListMessage
[ WorldServer ] <127.0.0.1:50986> Receive CharacterDeletionRequestMessage
[ Info ] Starting IPC Auth 127.0.0.1:443
[ Info ] Starting IPC World 127.0.0.1:5556
[ Info ] Client <127.0.0.1:51007> connected to AuthServer...
[ AuthServer ] <127.0.0.1:443> Send ProtocolRequired
[ AuthServer ] <127.0.0.1:443> Send HelloConnectMessage
[ AuthServer ] <127.0.0.1:51007> Receive IdentificationMessage
[ AuthServer ] <127.0.0.1:443> Send IdentificationSuccessMessage
[ AuthServer ] <127.0.0.1:443> Send ServersListMessage
[ AuthServer ] <127.0.0.1:51007> Receive ServerSelectionMessage
[ AuthServer ] <127.0.0.1:443> Send SelectedServerDataMessage
[ Info ] Client <127.0.0.1:51007> disconnected from AuthServer...
[ Info ] Client <127.0.0.1:51009> connected to WorldServer...
[ WorldServer ] <127.0.0.1:5556> Send ProtocolRequired
[ WorldServer ] <127.0.0.1:5556> Send HelloGameMessage
[ WorldServer ] <127.0.0.1:51009> Receive AuthenticationTicketMessage
[ WorldServer ] <127.0.0.1:5556> Send AuthenticationTicketAcceptedMessage
[ WorldServer ] <127.0.0.1:5556> Send BasicTimeMessage
[ WorldServer ] <127.0.0.1:5556> Send AccountCapabilitiesMessage
[ WorldServer ] <127.0.0.1:5556> Send TrustStatusMessage
[ WorldServer ] <127.0.0.1:51009> Receive CharactersListRequestMessage
[ WorldServer ] <127.0.0.1:5556> Send CharactersListMessage
[ WorldServer ] <127.0.0.1:51009> Receive CharacterDeletionRequestMessage
[ WorldServer ] <127.0.0.1:5556> Send CharactersListMessage
[ Info ] Starting IPC Auth 127.0.0.1:443
[ Info ] Starting IPC World 127.0.0.1:5556
[ Info ] Client <127.0.0.1:51221> connected to AuthServer...
[ AuthServer ] <127.0.0.1:443> Send ProtocolRequired
[ AuthServer ] <127.0.0.1:443> Send HelloConnectMessage
[ AuthServer ] <127.0.0.1:51221> Receive IdentificationMessage
[ AuthServer ] <127.0.0.1:443> Send IdentificationSuccessMessage
[ AuthServer ] <127.0.0.1:443> Send ServersListMessage
[ AuthServer ] <127.0.0.1:51221> Receive ServerSelectionMessage
[ AuthServer ] <127.0.0.1:443> Send SelectedServerDataMessage
[ Info ] Client <127.0.0.1:51221> disconnected from AuthServer...
[ Info ] Client <127.0.0.1:51223> connected to WorldServer...
[ WorldServer ] <127.0.0.1:5556> Send ProtocolRequired
[ WorldServer ] <127.0.0.1:5556> Send HelloGameMessage
[ WorldServer ] <127.0.0.1:51223> Receive AuthenticationTicketMessage
[ WorldServer ] <127.0.0.1:5556> Send AuthenticationTicketAcceptedMessage
[ WorldServer ] <127.0.0.1:5556> Send BasicTimeMessage
[ WorldServer ] <127.0.0.1:5556> Send AccountCapabilitiesMessage
[ WorldServer ] <127.0.0.1:5556> Send TrustStatusMessage
[ WorldServer ] <127.0.0.1:51223> Receive CharactersListRequestMessage
[ WorldServer ] <127.0.0.1:5556> Send CharactersListMessage
[ WorldServer ] <127.0.0.1:51223> Receive CharacterCreationRequestMessage
[ Info ] Starting IPC Auth 127.0.0.1:443
[ Info ] Starting IPC World 127.0.0.1:5556
[ Info ] Client <127.0.0.1:51298> connected to AuthServer...
[ AuthServer ] <127.0.0.1:443> Send ProtocolRequired
[ AuthServer ] <127.0.0.1:443> Send HelloConnectMessage
[ AuthServer ] <127.0.0.1:51298> Receive IdentificationMessage
[ AuthServer ] <127.0.0.1:443> Send IdentificationSuccessMessage
[ AuthServer ] <127.0.0.1:443> Send ServersListMessage
[ AuthServer ] <127.0.0.1:51298> Receive ServerSelectionMessage
[ AuthServer ] <127.0.0.1:443> Send SelectedServerDataMessage
[ Info ] Client <127.0.0.1:51298> disconnected from AuthServer...
[ Info ] Client <127.0.0.1:51300> connected to WorldServer...
[ WorldServer ] <127.0.0.1:5556> Send ProtocolRequired
[ WorldServer ] <127.0.0.1:5556> Send HelloGameMessage
[ WorldServer ] <127.0.0.1:51300> Receive AuthenticationTicketMessage
[ WorldServer ] <127.0.0.1:5556> Send AuthenticationTicketAcceptedMessage
[ WorldServer ] <127.0.0.1:5556> Send BasicTimeMessage
[ WorldServer ] <127.0.0.1:5556> Send AccountCapabilitiesMessage
[ WorldServer ] <127.0.0.1:5556> Send TrustStatusMessage
[ WorldServer ] <127.0.0.1:51300> Receive CharactersListRequestMessage
[ WorldServer ] <127.0.0.1:5556> Send CharactersListMessage
[ WorldServer ] <127.0.0.1:51300> Receive CharacterCreationRequestMessage
[ Info ] Starting IPC Auth 127.0.0.1:443
[ Info ] Starting IPC World 127.0.0.1:5556
[ Info ] Client <127.0.0.1:51448> connected to AuthServer...
[ AuthServer ] <127.0.0.1:443> Send ProtocolRequired
[ AuthServer ] <127.0.0.1:443> Send HelloConnectMessage
[ AuthServer ] <127.0.0.1:51448> Receive IdentificationMessage
[ AuthServer ] <127.0.0.1:443> Send IdentificationSuccessMessage
[ AuthServer ] <127.0.0.1:443> Send ServersListMessage
[ AuthServer ] <127.0.0.1:51448> Receive ServerSelectionMessage
[ AuthServer ] <127.0.0.1:443> Send SelectedServerDataMessage
[ Info ] Client <127.0.0.1:51448> disconnected from AuthServer...
[ Info ] Client <127.0.0.1:51449> connected to WorldServer...
[ WorldServer ] <127.0.0.1:5556> Send ProtocolRequired
[ WorldServer ] <127.0.0.1:5556> Send HelloGameMessage
[ WorldServer ] <127.0.0.1:51449> Receive AuthenticationTicketMessage
[ WorldServer ] <127.0.0.1:5556> Send AuthenticationTicketAcceptedMessage
[ WorldServer ] <127.0.0.1:5556> Send BasicTimeMessage
[ WorldServer ] <127.0.0.1:5556> Send AccountCapabilitiesMessage
[ WorldServer ] <127.0.0.1:5556> Send TrustStatusMessage
[ WorldServer ] <127.0.0.1:51449> Receive CharactersListRequestMessage
[ WorldServer ] <127.0.0.1:5556> Send CharactersListMessage
[ WorldServer ] <127.0.0.1:51449> Receive CharacterCreationRequestMessage
[ Info ] Starting IPC Auth 127.0.0.1:443
[ Info ] Starting IPC World 127.0.0.1:5556
[ Info ] Client <127.0.0.1:51462> connected to AuthServer...
[ AuthServer ] <127.0.0.1:443> Send ProtocolRequired
[ AuthServer ] <127.0.0.1:443> Send HelloConnectMessage
[ AuthServer ] <127.0.0.1:51462> Receive IdentificationMessage
[ AuthServer ] <127.0.0.1:443> Send IdentificationSuccessMessage
[ AuthServer ] <127.0.0.1:443> Send ServersListMessage
[ AuthServer ] <127.0.0.1:51462> Receive ServerSelectionMessage
[ AuthServer ] <127.0.0.1:443> Send SelectedServerDataMessage
[ Info ] Client <127.0.0.1:51462> disconnected from AuthServer...
[ Info ] Client <127.0.0.1:51464> connected to WorldServer...
[ WorldServer ] <127.0.0.1:5556> Send ProtocolRequired
[ WorldServer ] <127.0.0.1:5556> Send HelloGameMessage
[ WorldServer ] <127.0.0.1:51464> Receive AuthenticationTicketMessage
[ WorldServer ] <127.0.0.1:5556> Send AuthenticationTicketAcceptedMessage
[ WorldServer ] <127.0.0.1:5556> Send BasicTimeMessage
[ WorldServer ] <127.0.0.1:5556> Send AccountCapabilitiesMessage
[ WorldServer ] <127.0.0.1:5556> Send TrustStatusMessage
[ WorldServer ] <127.0.0.1:51464> Receive CharactersListRequestMessage
[ WorldServer ] <127.0.0.1:5556> Send CharactersListMessage
[ WorldServer ] <127.0.0.1:51464> Receive CharacterNameSuggestionRequestMessage
[ WorldServer ] <127.0.0.1:5556> Send CharacterNameSuggestionSuccessMessage
[ WorldServer ] <127.0.0.1:51464> Receive CharacterCreationRequestMessage
[ Info ] Starting IPC Auth 127.0.0.1:443
[ Info ] Starting IPC World 127.0.0.1:5556
[ Info ] Client <127.0.0.1:51679> connected to AuthServer...
[ AuthServer ] <127.0.0.1:443> Send ProtocolRequired
[ AuthServer ] <127.0.0.1:443> Send HelloConnectMessage
[ AuthServer ] <127.0.0.1:51679> Receive IdentificationMessage
[ AuthServer ] <127.0.0.1:443> Send IdentificationSuccessMessage
[ AuthServer ] <127.0.0.1:443> Send ServersListMessage
[ AuthServer ] <127.0.0.1:51679> Receive ServerSelectionMessage
[ AuthServer ] <127.0.0.1:443> Send SelectedServerDataMessage
[ Info ] Client <127.0.0.1:51679> disconnected from AuthServer...
[ Info ] Client <127.0.0.1:51680> connected to WorldServer...
[ WorldServer ] <127.0.0.1:5556> Send ProtocolRequired
[ WorldServer ] <127.0.0.1:5556> Send HelloGameMessage
[ WorldServer ] <127.0.0.1:51680> Receive AuthenticationTicketMessage
[ WorldServer ] <127.0.0.1:5556> Send AuthenticationTicketAcceptedMessage
[ WorldServer ] <127.0.0.1:5556> Send BasicTimeMessage
[ WorldServer ] <127.0.0.1:5556> Send AccountCapabilitiesMessage
[ WorldServer ] <127.0.0.1:5556> Send TrustStatusMessage
[ WorldServer ] <127.0.0.1:51680> Receive CharactersListRequestMessage
[ WorldServer ] <127.0.0.1:5556> Send CharactersListMessage
[ WorldServer ] <127.0.0.1:51680> Receive CharacterCreationRequestMessage
[ Info ] Starting IPC Auth 127.0.0.1:443
[ Info ] Starting IPC World 127.0.0.1:5556
[ Info ] Client <127.0.0.1:51726> connected to AuthServer...
[ AuthServer ] <127.0.0.1:443> Send ProtocolRequired
[ AuthServer ] <127.0.0.1:443> Send HelloConnectMessage
[ AuthServer ] <127.0.0.1:51726> Receive IdentificationMessage
[ AuthServer ] <127.0.0.1:443> Send IdentificationSuccessMessage
[ AuthServer ] <127.0.0.1:443> Send ServersListMessage
[ AuthServer ] <127.0.0.1:51726> Receive ServerSelectionMessage
[ AuthServer ] <127.0.0.1:443> Send SelectedServerDataMessage
[ Info ] Client <127.0.0.1:51726> disconnected from AuthServer...
[ Info ] Client <127.0.0.1:51727> connected to WorldServer...
[ WorldServer ] <127.0.0.1:5556> Send ProtocolRequired
[ WorldServer ] <127.0.0.1:5556> Send HelloGameMessage
[ WorldServer ] <127.0.0.1:51727> Receive AuthenticationTicketMessage
[ WorldServer ] <127.0.0.1:5556> Send AuthenticationTicketAcceptedMessage
[ WorldServer ] <127.0.0.1:5556> Send BasicTimeMessage
[ WorldServer ] <127.0.0.1:5556> Send AccountCapabilitiesMessage
[ WorldServer ] <127.0.0.1:5556> Send TrustStatusMessage
[ WorldServer ] <127.0.0.1:51727> Receive CharactersListRequestMessage
[ WorldServer ] <127.0.0.1:5556> Send CharactersListMessage
[ WorldServer ] <127.0.0.1:51727> Receive CharacterNameSuggestionRequestMessage
[ WorldServer ] <127.0.0.1:5556> Send CharacterNameSuggestionSuccessMessage
[ WorldServer ] <127.0.0.1:51727> Receive CharacterCreationRequestMessage
[ Info ] Character Colors was create...
[ WorldServer ] <127.0.0.1:5556> Send CharacterCreationResultMessage
[ WorldServer ] <127.0.0.1:5556> Send CharactersListMessage
[ WorldServer ] <127.0.0.1:51727> Receive CharacterSelectionMessage
[ WorldServer ] <127.0.0.1:5556> Send CharacterSelectedSuccessMessage
[ WorldServer ] <127.0.0.1:5556> Send InventoryContentMessage
[ WorldServer ] <127.0.0.1:5556> Send ShortcutBarContentMessage
[ WorldServer ] <127.0.0.1:5556> Send ShortcutBarContentMessage
[ WorldServer ] <127.0.0.1:5556> Send EmoteListMessage
[ WorldServer ] <127.0.0.1:5556> Send EnabledChannelsMessage
[ WorldServer ] <127.0.0.1:5556> Send AlignmentRankUpdateMessage
[ WorldServer ] <127.0.0.1:5556> Send AlignmentSubAreasListMessage
[ WorldServer ] <127.0.0.1:5556> Send SpellListMessage
[ WorldServer ] <127.0.0.1:5556> Send InventoryWeightMessage
[ WorldServer ] <127.0.0.1:5556> Send CharacterStatsListMessage
[ WorldServer ] <127.0.0.1:5556> Send JobDescriptionMessage
[ WorldServer ] <127.0.0.1:5556> Send JobExperienceMultiUpdateMessage
[ WorldServer ] <127.0.0.1:5556> Send JobCrafterDirectorySettingsMessage
[ WorldServer ] <127.0.0.1:51727> Receive IgnoredGetListMessage
[ WorldServer ] <127.0.0.1:5556> Send IgnoredListMessage
[ WorldServer ] <127.0.0.1:51727> Receive GameContextCreateRequestMessage
[ WorldServer ] <127.0.0.1:5556> Send GameContextDestroyMessage
[ WorldServer ] <127.0.0.1:5556> Send GameContextCreateMessage
[ WorldServer ] <127.0.0.1:5556> Send CurrentMapMessage
[ WorldServer ] <127.0.0.1:51727> Receive ChannelEnablingMessage
[ WorldServer ] <127.0.0.1:51727> Receive ChannelEnablingMessage
[ WorldServer ] <127.0.0.1:51727> Receive ChannelEnablingMessage
[ WorldServer ] <127.0.0.1:51727> Receive QuestListRequestMessage
[ WorldServer ] <127.0.0.1:5556> Send QuestListMessage
[ WorldServer ] <127.0.0.1:51727> Receive MapInformationsRequestMessage
[ WorldServer ] <127.0.0.1:5556> Send MapComplementaryInformationsDataMessage
[ WorldServer ] <127.0.0.1:5556> Send GameRolePlayShowActorMessage
[ WorldServer ] <127.0.0.1:51727> Receive GameMapMovementRequestMessage
[ WorldServer ] <127.0.0.1:5556> Send GameMapMovementMessage
[ WorldServer ] <127.0.0.1:51727> Receive GameMapMovementConfirmMessage
[ WorldServer ] <127.0.0.1:5556> Send BasicNoOperationMessage
[ WorldServer ] <127.0.0.1:51727> Receive GameMapMovementRequestMessage
[ WorldServer ] <127.0.0.1:5556> Send GameMapMovementMessage
[ WorldServer ] <127.0.0.1:51727> Receive GameMapMovementConfirmMessage
[ WorldServer ] <127.0.0.1:5556> Send BasicNoOperationMessage
[ Info ] Client <127.0.0.1:51727> disconnected from WorldServer...
[ Info ] Client <127.0.0.1:51760> connected to AuthServer...
[ AuthServer ] <127.0.0.1:443> Send ProtocolRequired
[ AuthServer ] <127.0.0.1:443> Send HelloConnectMessage
[ AuthServer ] <127.0.0.1:51760> Receive IdentificationWithServerIdMessage
[ AuthServer ] <127.0.0.1:443> Send IdentificationSuccessMessage
[ AuthServer ] <127.0.0.1:443> Send SelectedServerDataMessage
[ Info ] Client <127.0.0.1:51760> disconnected from AuthServer...
[ Info ] Client <127.0.0.1:51761> connected to WorldServer...
[ WorldServer ] <127.0.0.1:5556> Send ProtocolRequired
[ WorldServer ] <127.0.0.1:5556> Send HelloGameMessage
[ WorldServer ] <127.0.0.1:51761> Receive AuthenticationTicketMessage
[ WorldServer ] <127.0.0.1:5556> Send AuthenticationTicketAcceptedMessage
[ WorldServer ] <127.0.0.1:5556> Send BasicTimeMessage
[ WorldServer ] <127.0.0.1:5556> Send AccountCapabilitiesMessage
[ WorldServer ] <127.0.0.1:5556> Send TrustStatusMessage
[ WorldServer ] <127.0.0.1:51761> Receive CharactersListRequestMessage
[ WorldServer ] <127.0.0.1:5556> Send CharactersListMessage
[ Info ] Client <127.0.0.1:51761> disconnected from WorldServer...
[ Info ] Saving world...
[ Info ] World saved !
[ Info ] Starting IPC Auth 127.0.0.1:443
[ Info ] Starting IPC World 127.0.0.1:5556
[ Info ] Client <127.0.0.1:51962> connected to AuthServer...
[ AuthServer ] <127.0.0.1:443> Send ProtocolRequired
[ AuthServer ] <127.0.0.1:443> Send HelloConnectMessage
[ AuthServer ] <127.0.0.1:51962> Receive IdentificationMessage
[ AuthServer ] <127.0.0.1:443> Send IdentificationFailedMessage
[ Info ] Client <127.0.0.1:51962> disconnected from AuthServer...
[ Info ] Client <127.0.0.1:51963> connected to AuthServer...
[ AuthServer ] <127.0.0.1:443> Send ProtocolRequired
[ AuthServer ] <127.0.0.1:443> Send HelloConnectMessage
[ AuthServer ] <127.0.0.1:51963> Receive IdentificationMessage
[ AuthServer ] <127.0.0.1:443> Send IdentificationFailedMessage
[ Info ] Client <127.0.0.1:51963> disconnected from AuthServer...
[ Info ] Client <127.0.0.1:51964> connected to AuthServer...
[ AuthServer ] <127.0.0.1:443> Send ProtocolRequired
[ AuthServer ] <127.0.0.1:443> Send HelloConnectMessage
[ AuthServer ] <127.0.0.1:51964> Receive IdentificationMessage
[ AuthServer ] <127.0.0.1:443> Send IdentificationFailedMessage
[ Info ] Client <127.0.0.1:51964> disconnected from AuthServer...
[ Info ] Client <127.0.0.1:51965> connected to AuthServer...
[ AuthServer ] <127.0.0.1:443> Send ProtocolRequired
[ AuthServer ] <127.0.0.1:443> Send HelloConnectMessage
[ AuthServer ] <127.0.0.1:51965> Receive IdentificationMessage
[ AuthServer ] <127.0.0.1:443> Send IdentificationFailedMessage
[ Info ] Client <127.0.0.1:51965> disconnected from AuthServer...
[ Info ] Client <127.0.0.1:51966> connected to AuthServer...
[ AuthServer ] <127.0.0.1:443> Send ProtocolRequired
[ AuthServer ] <127.0.0.1:443> Send HelloConnectMessage
[ AuthServer ] <127.0.0.1:51966> Receive IdentificationMessage
[ AuthServer ] <127.0.0.1:443> Send IdentificationFailedMessage
[ Info ] Client <127.0.0.1:51966> disconnected from AuthServer...
[ Info ] Client <127.0.0.1:51967> connected to AuthServer...
[ AuthServer ] <127.0.0.1:443> Send ProtocolRequired
[ AuthServer ] <127.0.0.1:443> Send HelloConnectMessage
[ AuthServer ] <127.0.0.1:51967> Receive IdentificationMessage
[ AuthServer ] <127.0.0.1:443> Send IdentificationFailedMessage
[ Info ] Client <127.0.0.1:51967> disconnected from AuthServer...
[ Info ] Client <127.0.0.1:51969> connected to AuthServer...
[ AuthServer ] <127.0.0.1:443> Send ProtocolRequired
[ AuthServer ] <127.0.0.1:443> Send HelloConnectMessage
[ AuthServer ] <127.0.0.1:51969> Receive IdentificationMessage
[ AuthServer ] <127.0.0.1:443> Send IdentificationFailedMessage
[ Info ] Client <127.0.0.1:51969> disconnected from AuthServer...
[ Info ] Client <127.0.0.1:51970> connected to AuthServer...
[ AuthServer ] <127.0.0.1:443> Send ProtocolRequired
[ AuthServer ] <127.0.0.1:443> Send HelloConnectMessage
[ AuthServer ] <127.0.0.1:51970> Receive IdentificationMessage
[ AuthServer ] <127.0.0.1:443> Send IdentificationFailedMessage
[ Info ] Client <127.0.0.1:51970> disconnected from AuthServer...
[ Info ] Starting IPC Auth 127.0.0.1:443
[ Info ] Starting IPC World 127.0.0.1:5556
[ Info ] Client <127.0.0.1:51987> connected to AuthServer...
[ AuthServer ] <127.0.0.1:443> Send ProtocolRequired
[ AuthServer ] <127.0.0.1:443> Send HelloConnectMessage
[ AuthServer ] <127.0.0.1:51987> Receive IdentificationMessage
[ AuthServer ] <127.0.0.1:443> Send IdentificationFailedMessage
[ Info ] Client <127.0.0.1:51987> disconnected from AuthServer...
[ Info ] Client <127.0.0.1:51989> connected to AuthServer...
[ AuthServer ] <127.0.0.1:443> Send ProtocolRequired
[ AuthServer ] <127.0.0.1:443> Send HelloConnectMessage
[ AuthServer ] <127.0.0.1:51989> Receive IdentificationMessage
[ AuthServer ] <127.0.0.1:443> Send IdentificationSuccessMessage
[ AuthServer ] <127.0.0.1:443> Send ServersListMessage
[ AuthServer ] <127.0.0.1:51989> Receive ServerSelectionMessage
[ AuthServer ] <127.0.0.1:443> Send SelectedServerDataMessage
[ Info ] Client <127.0.0.1:51989> disconnected from AuthServer...
[ Info ] Client <127.0.0.1:51990> connected to WorldServer...
[ WorldServer ] <127.0.0.1:5556> Send ProtocolRequired
[ WorldServer ] <127.0.0.1:5556> Send HelloGameMessage
[ WorldServer ] <127.0.0.1:51990> Receive AuthenticationTicketMessage
[ WorldServer ] <127.0.0.1:5556> Send AuthenticationTicketAcceptedMessage
[ WorldServer ] <127.0.0.1:5556> Send BasicTimeMessage
[ WorldServer ] <127.0.0.1:5556> Send AccountCapabilitiesMessage
[ WorldServer ] <127.0.0.1:5556> Send TrustStatusMessage
[ WorldServer ] <127.0.0.1:51990> Receive CharactersListRequestMessage
[ WorldServer ] <127.0.0.1:5556> Send CharactersListMessage
[ WorldServer ] <127.0.0.1:51990> Receive CharacterCreationRequestMessage
[ Info ] Character Unterlebg was create...
[ WorldServer ] <127.0.0.1:5556> Send CharacterCreationResultMessage
[ WorldServer ] <127.0.0.1:5556> Send CharactersListMessage
[ WorldServer ] <127.0.0.1:51990> Receive CharacterSelectionMessage
[ WorldServer ] <127.0.0.1:5556> Send CharacterSelectedSuccessMessage
[ WorldServer ] <127.0.0.1:5556> Send InventoryContentMessage
[ WorldServer ] <127.0.0.1:5556> Send ShortcutBarContentMessage
[ WorldServer ] <127.0.0.1:5556> Send ShortcutBarContentMessage
[ WorldServer ] <127.0.0.1:5556> Send EmoteListMessage
[ WorldServer ] <127.0.0.1:5556> Send EnabledChannelsMessage
[ WorldServer ] <127.0.0.1:5556> Send AlignmentRankUpdateMessage
[ WorldServer ] <127.0.0.1:5556> Send AlignmentSubAreasListMessage
[ WorldServer ] <127.0.0.1:5556> Send SpellListMessage
[ WorldServer ] <127.0.0.1:5556> Send InventoryWeightMessage
[ WorldServer ] <127.0.0.1:5556> Send CharacterStatsListMessage
[ WorldServer ] <127.0.0.1:5556> Send JobDescriptionMessage
[ WorldServer ] <127.0.0.1:5556> Send JobExperienceMultiUpdateMessage
[ WorldServer ] <127.0.0.1:5556> Send JobCrafterDirectorySettingsMessage
[ WorldServer ] <127.0.0.1:51990> Receive IgnoredGetListMessage
[ WorldServer ] <127.0.0.1:5556> Send IgnoredListMessage
[ WorldServer ] <127.0.0.1:51990> Receive GameContextCreateRequestMessage
[ WorldServer ] <127.0.0.1:5556> Send GameContextDestroyMessage
[ WorldServer ] <127.0.0.1:5556> Send GameContextCreateMessage
[ WorldServer ] <127.0.0.1:5556> Send CurrentMapMessage
[ WorldServer ] <127.0.0.1:51990> Receive QuestListRequestMessage
[ WorldServer ] <127.0.0.1:5556> Send QuestListMessage
[ WorldServer ] <127.0.0.1:51990> Receive ChannelEnablingMessage
[ WorldServer ] <127.0.0.1:51990> Receive ChannelEnablingMessage
[ WorldServer ] <127.0.0.1:51990> Receive ChannelEnablingMessage
[ WorldServer ] <127.0.0.1:51990> Receive MapInformationsRequestMessage
[ WorldServer ] <127.0.0.1:5556> Send MapComplementaryInformationsDataMessage
[ WorldServer ] <127.0.0.1:5556> Send GameRolePlayShowActorMessage
[ WorldServer ] <127.0.0.1:51990> Receive GameMapMovementRequestMessage
[ WorldServer ] <127.0.0.1:5556> Send GameMapMovementMessage
[ WorldServer ] <127.0.0.1:51990> Receive GameMapMovementConfirmMessage
[ WorldServer ] <127.0.0.1:5556> Send BasicNoOperationMessage
[ WorldServer ] <127.0.0.1:51990> Receive ChatClientMultiMessage
[ WorldServer ] <127.0.0.1:5556> Send ObjectAddedMessage
[ WorldServer ] <127.0.0.1:5556> Send InventoryWeightMessage
[ WorldServer ] <127.0.0.1:5556> Send TextInformationMessage
[ WorldServer ] <127.0.0.1:51990> Receive ChatClientMultiMessage
[ WorldServer ] <127.0.0.1:5556> Send ShortcutBarRefreshMessage
[ WorldServer ] <127.0.0.1:5556> Send ShortcutBarRefreshMessage
[ WorldServer ] <127.0.0.1:5556> Send ShortcutBarRefreshMessage
[ WorldServer ] <127.0.0.1:5556> Send ShortcutBarRefreshMessage
[ WorldServer ] <127.0.0.1:5556> Send ShortcutBarRefreshMessage
[ WorldServer ] <127.0.0.1:5556> Send ShortcutBarRefreshMessage
[ WorldServer ] <127.0.0.1:5556> Send ShortcutBarRefreshMessage
[ WorldServer ] <127.0.0.1:5556> Send ShortcutBarRefreshMessage
[ WorldServer ] <127.0.0.1:5556> Send ShortcutBarRefreshMessage
[ WorldServer ] <127.0.0.1:5556> Send ShortcutBarRefreshMessage
[ WorldServer ] <127.0.0.1:5556> Send ShortcutBarRefreshMessage
[ WorldServer ] <127.0.0.1:5556> Send ShortcutBarRefreshMessage
[ WorldServer ] <127.0.0.1:5556> Send ShortcutBarRefreshMessage
[ WorldServer ] <127.0.0.1:5556> Send ShortcutBarRefreshMessage
[ WorldServer ] <127.0.0.1:5556> Send ShortcutBarRefreshMessage
[ WorldServer ] <127.0.0.1:5556> Send ShortcutBarRefreshMessage
[ WorldServer ] <127.0.0.1:5556> Send ShortcutBarRefreshMessage
[ WorldServer ] <127.0.0.1:5556> Send ShortcutBarRefreshMessage
[ WorldServer ] <127.0.0.1:5556> Send CharacterLevelUpMessage
[ WorldServer ] <127.0.0.1:5556> Send CharacterLevelUpInformationMessage
[ WorldServer ] <127.0.0.1:5556> Send CharacterStatsListMessage
[ WorldServer ] <127.0.0.1:51990> Receive ObjectSetPositionMessage
[ WorldServer ] <127.0.0.1:5556> Send ObjectMovementMessage
[ WorldServer ] <127.0.0.1:5556> Send CharacterStatsListMessage
[ WorldServer ] <127.0.0.1:5556> Send GameContextRefreshEntityLookMessage
[ WorldServer ] <127.0.0.1:5556> Send InventoryWeightMessage
[ Info ] Client <127.0.0.1:51990> disconnected from WorldServer...
[ Info ] Client <127.0.0.1:51993> connected to AuthServer...
[ AuthServer ] <127.0.0.1:443> Send ProtocolRequired
[ AuthServer ] <127.0.0.1:443> Send HelloConnectMessage
[ AuthServer ] <127.0.0.1:51993> Receive IdentificationWithServerIdMessage
[ AuthServer ] <127.0.0.1:443> Send IdentificationSuccessMessage
[ AuthServer ] <127.0.0.1:443> Send SelectedServerDataMessage
[ Info ] Client <127.0.0.1:51993> disconnected from AuthServer...
[ Info ] Client <127.0.0.1:51994> connected to WorldServer...
[ WorldServer ] <127.0.0.1:5556> Send ProtocolRequired
[ WorldServer ] <127.0.0.1:5556> Send HelloGameMessage
[ WorldServer ] <127.0.0.1:51994> Receive AuthenticationTicketMessage
[ WorldServer ] <127.0.0.1:5556> Send AuthenticationTicketAcceptedMessage
[ WorldServer ] <127.0.0.1:5556> Send BasicTimeMessage
[ WorldServer ] <127.0.0.1:5556> Send AccountCapabilitiesMessage
[ WorldServer ] <127.0.0.1:5556> Send TrustStatusMessage
[ WorldServer ] <127.0.0.1:51994> Receive CharactersListRequestMessage
[ WorldServer ] <127.0.0.1:5556> Send CharactersListMessage
[ Info ] Client <127.0.0.1:51994> disconnected from WorldServer...
[ Info ] Saving world...
[ Info ] World saved !
[ Info ] Client <127.0.0.1:51997> connected to AuthServer...
[ AuthServer ] <127.0.0.1:443> Send ProtocolRequired
[ AuthServer ] <127.0.0.1:443> Send HelloConnectMessage
[ AuthServer ] <127.0.0.1:51997> Receive IdentificationMessage
[ AuthServer ] <127.0.0.1:443> Send IdentificationSuccessMessage
[ AuthServer ] <127.0.0.1:443> Send ServersListMessage
[ AuthServer ] <127.0.0.1:51997> Receive ServerSelectionMessage
[ AuthServer ] <127.0.0.1:443> Send SelectedServerDataMessage
[ Info ] Client <127.0.0.1:51997> disconnected from AuthServer...
[ Info ] Client <127.0.0.1:51998> connected to WorldServer...
[ WorldServer ] <127.0.0.1:5556> Send ProtocolRequired
[ WorldServer ] <127.0.0.1:5556> Send HelloGameMessage
[ WorldServer ] <127.0.0.1:51998> Receive AuthenticationTicketMessage
[ WorldServer ] <127.0.0.1:5556> Send AuthenticationTicketAcceptedMessage
[ WorldServer ] <127.0.0.1:5556> Send BasicTimeMessage
[ WorldServer ] <127.0.0.1:5556> Send AccountCapabilitiesMessage
[ WorldServer ] <127.0.0.1:5556> Send TrustStatusMessage
[ WorldServer ] <127.0.0.1:51998> Receive CharactersListRequestMessage
[ WorldServer ] <127.0.0.1:5556> Send CharactersListMessage
[ WorldServer ] <127.0.0.1:51998> Receive CharacterSelectionMessage
[ WorldServer ] <127.0.0.1:5556> Send CharacterSelectedSuccessMessage
[ WorldServer ] <127.0.0.1:5556> Send InventoryContentMessage
[ WorldServer ] <127.0.0.1:5556> Send ShortcutBarContentMessage
[ WorldServer ] <127.0.0.1:5556> Send ShortcutBarContentMessage
[ WorldServer ] <127.0.0.1:5556> Send EmoteListMessage
[ WorldServer ] <127.0.0.1:5556> Send EnabledChannelsMessage
[ WorldServer ] <127.0.0.1:5556> Send AlignmentRankUpdateMessage
[ WorldServer ] <127.0.0.1:5556> Send AlignmentSubAreasListMessage
[ WorldServer ] <127.0.0.1:5556> Send SpellListMessage
[ WorldServer ] <127.0.0.1:5556> Send InventoryWeightMessage
[ WorldServer ] <127.0.0.1:5556> Send CharacterStatsListMessage
[ WorldServer ] <127.0.0.1:5556> Send JobDescriptionMessage
[ WorldServer ] <127.0.0.1:5556> Send JobExperienceMultiUpdateMessage
[ WorldServer ] <127.0.0.1:5556> Send JobCrafterDirectorySettingsMessage
[ WorldServer ] <127.0.0.1:51998> Receive IgnoredGetListMessage
[ WorldServer ] <127.0.0.1:5556> Send IgnoredListMessage
[ WorldServer ] <127.0.0.1:51998> Receive GameContextCreateRequestMessage
[ WorldServer ] <127.0.0.1:5556> Send GameContextDestroyMessage
[ WorldServer ] <127.0.0.1:5556> Send GameContextCreateMessage
[ WorldServer ] <127.0.0.1:5556> Send CurrentMapMessage
[ WorldServer ] <127.0.0.1:51998> Receive QuestListRequestMessage
[ WorldServer ] <127.0.0.1:5556> Send QuestListMessage
[ WorldServer ] <127.0.0.1:51998> Receive ChannelEnablingMessage
[ WorldServer ] <127.0.0.1:51998> Receive ChannelEnablingMessage
[ WorldServer ] <127.0.0.1:51998> Receive ChannelEnablingMessage
[ WorldServer ] <127.0.0.1:51998> Receive MapInformationsRequestMessage
[ WorldServer ] <127.0.0.1:5556> Send MapComplementaryInformationsDataMessage
[ WorldServer ] <127.0.0.1:5556> Send GameRolePlayShowActorMessage
[ Info ] Starting IPC Auth 127.0.0.1:443
[ Info ] Starting IPC World 127.0.0.1:5556
[ Info ] Client <127.0.0.1:52012> connected to AuthServer...
[ AuthServer ] <127.0.0.1:443> Send ProtocolRequired
[ AuthServer ] <127.0.0.1:443> Send HelloConnectMessage
[ AuthServer ] <127.0.0.1:52012> Receive IdentificationMessage
[ AuthServer ] <127.0.0.1:443> Send IdentificationSuccessMessage
[ AuthServer ] <127.0.0.1:443> Send ServersListMessage
[ AuthServer ] <127.0.0.1:52012> Receive ServerSelectionMessage
[ AuthServer ] <127.0.0.1:443> Send SelectedServerDataMessage
[ Info ] Client <127.0.0.1:52012> disconnected from AuthServer...
[ Info ] Client <127.0.0.1:52013> connected to WorldServer...
[ WorldServer ] <127.0.0.1:5556> Send ProtocolRequired
[ WorldServer ] <127.0.0.1:5556> Send HelloGameMessage
[ WorldServer ] <127.0.0.1:52013> Receive AuthenticationTicketMessage
[ WorldServer ] <127.0.0.1:5556> Send AuthenticationTicketAcceptedMessage
[ WorldServer ] <127.0.0.1:5556> Send BasicTimeMessage
[ WorldServer ] <127.0.0.1:5556> Send AccountCapabilitiesMessage
[ WorldServer ] <127.0.0.1:5556> Send TrustStatusMessage
[ WorldServer ] <127.0.0.1:52013> Receive CharactersListRequestMessage
[ WorldServer ] <127.0.0.1:5556> Send CharactersListMessage
[ WorldServer ] <127.0.0.1:52013> Receive CharacterSelectionMessage
[ WorldServer ] <127.0.0.1:5556> Send CharacterSelectedSuccessMessage
[ WorldServer ] <127.0.0.1:5556> Send InventoryContentMessage
[ WorldServer ] <127.0.0.1:5556> Send ShortcutBarContentMessage
[ WorldServer ] <127.0.0.1:5556> Send ShortcutBarContentMessage
[ WorldServer ] <127.0.0.1:5556> Send EmoteListMessage
[ WorldServer ] <127.0.0.1:5556> Send EnabledChannelsMessage
[ WorldServer ] <127.0.0.1:5556> Send AlignmentRankUpdateMessage
[ WorldServer ] <127.0.0.1:5556> Send AlignmentSubAreasListMessage
[ WorldServer ] <127.0.0.1:5556> Send SpellListMessage
[ WorldServer ] <127.0.0.1:5556> Send InventoryWeightMessage
[ WorldServer ] <127.0.0.1:5556> Send CharacterStatsListMessage
[ WorldServer ] <127.0.0.1:5556> Send JobDescriptionMessage
[ WorldServer ] <127.0.0.1:5556> Send JobExperienceMultiUpdateMessage
[ WorldServer ] <127.0.0.1:5556> Send JobCrafterDirectorySettingsMessage
[ WorldServer ] <127.0.0.1:52013> Receive IgnoredGetListMessage
[ WorldServer ] <127.0.0.1:5556> Send IgnoredListMessage
[ WorldServer ] <127.0.0.1:52013> Receive GameContextCreateRequestMessage
[ WorldServer ] <127.0.0.1:5556> Send GameContextDestroyMessage
[ WorldServer ] <127.0.0.1:5556> Send GameContextCreateMessage
[ WorldServer ] <127.0.0.1:5556> Send CurrentMapMessage
[ WorldServer ] <127.0.0.1:52013> Receive QuestListRequestMessage
[ WorldServer ] <127.0.0.1:5556> Send QuestListMessage
[ WorldServer ] <127.0.0.1:52013> Receive ChannelEnablingMessage
[ WorldServer ] <127.0.0.1:52013> Receive ChannelEnablingMessage
[ WorldServer ] <127.0.0.1:52013> Receive ChannelEnablingMessage
[ WorldServer ] <127.0.0.1:52013> Receive MapInformationsRequestMessage
[ WorldServer ] <127.0.0.1:5556> Send MapComplementaryInformationsDataMessage
[ WorldServer ] <127.0.0.1:5556> Send GameRolePlayShowActorMessage
